HTS Challenge - Mutual Information
…
Picking strains to promote.

In order to pick strains to promote, I would pick the strains with the highest corrected values. According the the wilcox test, although I cannot be statistically certain that all of these strains are definitely better than the parent strain, I can say that they have about a 8.5% chance of being the same as the parent strain.

wells %>% filter(well_type == 'Standard Well') %>% select(strain, value_corrected, p_value, rank)

## # A tibble: 5,280 x 4
##    strain value_corrected p_value  rank
##    <chr>            <dbl>   <dbl> <dbl>
##  1 X2036            1620.  0.0845    1.
##  2 X2106            1593.  0.0845    2.
##  3 X2035            1563.  0.0845    3.
##  4 X3340            1554.  0.0845    4.
##  5 X4173            1506.  0.0845    5.
##  6 X5052            1487.  0.0845    6.
##  7 X4085            1353.  0.0845    7.
##  8 X1899            1336.  0.0845    8.
##  9 X3029            1289.  0.0845    9.
## 10 X894             1288.  0.0845   10.
## # ... with 5,270 more rows
…
